%YAML 1.1
%TAG !u! tag:unity3d.com,2011:
--- !u!1 &8676299378255734997
GameObject:
  m_ObjectHideFlags: 0
  m_CorrespondingSourceObject: {fileID: 0}
  m_PrefabInstance: {fileID: 0}
  m_PrefabAsset: {fileID: 0}
  serializedVersion: 6
  m_Component:
  - component: {fileID: 8676299378255734994}
  - component: {fileID: 8676299378255734993}
  - component: {fileID: 8676299378255734992}
  - component: {fileID: 8676299378255734999}
  - component: {fileID: 8676299378255734995}
  - component: {fileID: 8676299378255734998}
  m_Layer: 0
  m_Name: Cube (1)
  m_TagString: Untagged
  m_Icon: {fileID: 0}
  m_NavMeshLayer: 0
  m_StaticEditorFlags: 0
  m_IsActive: 1
--- !u!4 &8676299378255734994
Transform:
  m_ObjectHideFlags: 0
  m_CorrespondingSourceObject: {fileID: 0}
  m_PrefabInstance: {fileID: 0}
  m_PrefabAsset: {fileID: 0}
  m_GameObject: {fileID: 8676299378255734997}
  m_LocalRotation: {x: 0, y: 0, z: 0, w: 1}
  m_LocalPosition: {x: 4.2565355, y: 4.045, z: 9.947113}
  m_LocalScale: {x: 1, y: 1, z: 1}
  m_Children: []
  m_Father: {fileID: 0}
  m_RootOrder: 0
  m_LocalEulerAnglesHint: {x: 0, y: 0, z: 0}
--- !u!33 &8676299378255734993
MeshFilter:
  m_ObjectHideFlags: 0
  m_CorrespondingSourceObject: {fileID: 0}
  m_PrefabInstance: {fileID: 0}
  m_PrefabAsset: {fileID: 0}
  m_GameObject: {fileID: 8676299378255734997}
  m_Mesh: {fileID: 0}
--- !u!23 &8676299378255734992
MeshRenderer:
  m_ObjectHideFlags: 0
  m_CorrespondingSourceObject: {fileID: 0}
  m_PrefabInstance: {fileID: 0}
  m_PrefabAsset: {fileID: 0}
  m_GameObject: {fileID: 8676299378255734997}
  m_Enabled: 1
  m_CastShadows: 1
  m_ReceiveShadows: 1
  m_DynamicOccludee: 1
  m_MotionVectors: 1
  m_LightProbeUsage: 1
  m_ReflectionProbeUsage: 1
  m_RenderingLayerMask: 1
  m_RendererPriority: 0
  m_Materials:
  - {fileID: 2100000, guid: c22777d6e868e4f2fb421913386b154e, type: 2}
  m_StaticBatchInfo:
    firstSubMesh: 0
    subMeshCount: 0
  m_StaticBatchRoot: {fileID: 0}
  m_ProbeAnchor: {fileID: 0}
  m_LightProbeVolumeOverride: {fileID: 0}
  m_ScaleInLightmap: 1
  m_ReceiveGI: 1
  m_PreserveUVs: 0
  m_IgnoreNormalsForChartDetection: 0
  m_ImportantGI: 0
  m_StitchLightmapSeams: 1
  m_SelectedEditorRenderState: 2
  m_MinimumChartSize: 4
  m_AutoUVMaxDistance: 0.5
  m_AutoUVMaxAngle: 89
  m_LightmapParameters: {fileID: 0}
  m_SortingLayerID: 0
  m_SortingLayer: 0
  m_SortingOrder: 0
--- !u!114 &8676299378255734999
MonoBehaviour:
  m_ObjectHideFlags: 0
  m_CorrespondingSourceObject: {fileID: 0}
  m_PrefabInstance: {fileID: 0}
  m_PrefabAsset: {fileID: 0}
  m_GameObject: {fileID: 8676299378255734997}
  m_Enabled: 1
  m_EditorHideFlags: 0
  m_Script: {fileID: 11500000, guid: 8233d90336aea43098adf6dbabd606a2, type: 3}
  m_Name: 
  m_EditorClassIdentifier: 
  m_MeshFormatVersion: 1
  m_Faces:
  - m_Indexes: 000000000100000002000000010000000300000002000000
    m_SmoothingGroup: 0
    m_Uv:
      m_UseWorldSpace: 0
      m_FlipU: 0
      m_FlipV: 0
      m_SwapUV: 0
      m_Fill: 1
      m_Scale: {x: 1, y: 1}
      m_Offset: {x: 0, y: 0}
      m_Rotation: 0
      m_Anchor: 9
    m_Material: {fileID: 0}
    m_SubmeshIndex: 0
    m_ManualUV: 0
    elementGroup: -1
    m_TextureGroup: -1
  - m_Indexes: 040000000500000006000000050000000700000006000000
    m_SmoothingGroup: 0
    m_Uv:
      m_UseWorldSpace: 0
      m_FlipU: 0
      m_FlipV: 0
      m_SwapUV: 0
      m_Fill: 1
      m_Scale: {x: 1, y: 1}
      m_Offset: {x: 0, y: 0}
      m_Rotation: 0
      m_Anchor: 9
    m_Material: {fileID: 0}
    m_SubmeshIndex: 0
    m_ManualUV: 0
    elementGroup: -1
    m_TextureGroup: -1
  - m_Indexes: 08000000090000000a000000090000000b0000000a000000
    m_SmoothingGroup: 0
    m_Uv:
      m_UseWorldSpace: 0
      m_FlipU: 0
      m_FlipV: 0
      m_SwapUV: 0
      m_Fill: 1
      m_Scale: {x: 1, y: 1}
      m_Offset: {x: 0, y: 0}
      m_Rotation: 0
      m_Anchor: 9
    m_Material: {fileID: 0}
    m_SubmeshIndex: 0
    m_ManualUV: 0
    elementGroup: -1
    m_TextureGroup: -1
  - m_Indexes: 0c0000000d0000000e0000000d0000000f0000000e000000
    m_SmoothingGroup: 0
    m_Uv:
      m_UseWorldSpace: 0
      m_FlipU: 0
      m_FlipV: 0
      m_SwapUV: 0
      m_Fill: 1
      m_Scale: {x: 1, y: 1}
      m_Offset: {x: 0, y: 0}
      m_Rotation: 0
      m_Anchor: 9
    m_Material: {fileID: 0}
    m_SubmeshIndex: 0
    m_ManualUV: 0
    elementGroup: -1
    m_TextureGroup: -1
  - m_Indexes: 100000001100000012000000110000001300000012000000
    m_SmoothingGroup: 0
    m_Uv:
      m_UseWorldSpace: 0
      m_FlipU: 0
      m_FlipV: 0
      m_SwapUV: 0
      m_Fill: 1
      m_Scale: {x: 1, y: 1}
      m_Offset: {x: 0, y: 0}
      m_Rotation: 0
      m_Anchor: 9
    m_Material: {fileID: 0}
    m_SubmeshIndex: 0
    m_ManualUV: 0
    elementGroup: -1
    m_TextureGroup: -1
  - m_Indexes: 140000001500000016000000150000001700000016000000
    m_SmoothingGroup: 0
    m_Uv:
      m_UseWorldSpace: 0
      m_FlipU: 0
      m_FlipV: 0
      m_SwapUV: 0
      m_Fill: 1
      m_Scale: {x: 1, y: 1}
      m_Offset: {x: 0, y: 0}
      m_Rotation: 0
      m_Anchor: 9
    m_Material: {fileID: 0}
    m_SubmeshIndex: 0
    m_ManualUV: 0
    elementGroup: -1
    m_TextureGroup: -1
  m_SharedVertices:
  - m_Vertices: 000000000d00000016000000
  - m_Vertices: 010000000400000017000000
  - m_Vertices: 020000000f00000010000000
  - m_Vertices: 030000000600000011000000
  - m_Vertices: 050000000800000015000000
  - m_Vertices: 070000000a00000013000000
  - m_Vertices: 090000000c00000014000000
  - m_Vertices: 0b0000000e00000012000000
  m_SharedTextures: []
  m_Positions:
  - {x: -1.078922, y: -0.46769166, z: 0.49711227}
  - {x: 1.0789223, y: -0.46769166, z: 0.5478468}
  - {x: -1.0300481, y: 0.46769142, z: 0.49711227}
  - {x: 1.0789223, y: 0.46769142, z: 0.5478468}
  - {x: 1.0789223, y: -0.46769166, z: 0.5478468}
  - {x: 1.0789223, y: -0.46769166, z: -0.49711227}
  - {x: 1.0789223, y: 0.46769142, z: 0.5478468}
  - {x: 1.0789223, y: 0.46769142, z: -0.49711227}
  - {x: 1.0789223, y: -0.46769166, z: -0.49711227}
  - {x: -1.0300481, y: -0.46769166, z: -0.5478468}
  - {x: 1.0789223, y: 0.46769142, z: -0.49711227}
  - {x: -1.0300481, y: 0.46769142, z: -0.5478468}
  - {x: -1.0300481, y: -0.46769166, z: -0.5478468}
  - {x: -1.078922, y: -0.46769166, z: 0.49711227}
  - {x: -1.0300481, y: 0.46769142, z: -0.5478468}
  - {x: -1.0300481, y: 0.46769142, z: 0.49711227}
  - {x: -1.0300481, y: 0.46769142, z: 0.49711227}
  - {x: 1.0789223, y: 0.46769142, z: 0.5478468}
  - {x: -1.0300481, y: 0.46769142, z: -0.5478468}
  - {x: 1.0789223, y: 0.46769142, z: -0.49711227}
  - {x: -1.0300481, y: -0.46769166, z: -0.5478468}
  - {x: 1.0789223, y: -0.46769166, z: -0.49711227}
  - {x: -1.078922, y: -0.46769166, z: 0.49711227}
  - {x: 1.0789223, y: -0.46769166, z: 0.5478468}
  m_Textures0:
  - {x: 1.0669392, y: -0.4683328}
  - {x: -1.0915015, y: -0.4683328}
  - {x: 1.0180788, y: 0.46705097}
  - {x: -1.0915015, y: 0.46704957}
  - {x: 0.5478468, y: -0.46769166}
  - {x: -0.49711227, y: -0.46769166}
  - {x: 0.5478468, y: 0.46769142}
  - {x: -0.49711227, y: 0.46769142}
  - {x: 1.0666548, y: -0.46769166}
  - {x: -1.0429257, y: -0.46769166}
  - {x: 1.0666548, y: 0.46769142}
  - {x: -1.0429257, y: 0.46769142}
  - {x: 0.49912468, y: -0.46769166}
  - {x: -0.54697675, y: -0.46769166}
  - {x: 0.49912468, y: 0.46769142}
  - {x: -0.54469335, y: 0.46769142}
  - {x: -1.0300481, y: 0.49711227}
  - {x: 1.0789223, y: 0.5478468}
  - {x: -1.0300481, y: -0.5478468}
  - {x: 1.0789223, y: -0.49711227}
  - {x: 1.0300481, y: -0.5478468}
  - {x: -1.0789223, y: -0.49711227}
  - {x: 1.078922, y: 0.49711227}
  - {x: -1.0789223, y: 0.5478468}
  m_Textures2: []
  m_Textures3: []
  m_Tangents:
  - {x: -0.99972373, y: 0, z: -0.023505172, w: -1}
  - {x: -0.9997173, y: -0.00000033905144, z: -0.023777375, w: -1}
  - {x: -0.9997173, y: -0.00000033905144, z: -0.023777375, w: -1}
  - {x: -0.99971086, y: -0.0000006781029, z: -0.02404958, w: -1}
  - {x: 0, y: 0, z: 1, w: -1}
  - {x: 0, y: 0, z: 1, w: -1}
  - {x: 0, y: 0, z: 1, w: -1}
  - {x: 0, y: 0, z: 1, w: -1}
  - {x: 0.9997108, y: 0, z: 0.024049578, w: -1}
  - {x: 0.9997108, y: 0, z: 0.024049578, w: -1}
  - {x: 0.9997108, y: 0, z: 0.024049578, w: -1}
  - {x: 0.9997108, y: 0, z: 0.024049578, w: -1}
  - {x: 0.04672005, y: 0, z: -0.99890804, w: -1}
  - {x: 0.02338231, y: -0.0000007489649, z: -0.99972653, w: -1}
  - {x: 0.02338231, y: -0.0000007489649, z: -0.99972653, w: -1}
  - {x: 0, y: 0, z: -1, w: -1}
  - {x: 1, y: 0, z: 0, w: -1}
  - {x: 1, y: 0, z: 0, w: -1}
  - {x: 1, y: 0, z: 0, w: -1}
  - {x: 1, y: 0, z: 0, w: -1}
  - {x: -1, y: 0, z: 0, w: -1}
  - {x: -1, y: 0, z: 0, w: -1}
  - {x: -1, y: 0, z: 0, w: -1}
  - {x: -1, y: 0, z: 0, w: -1}
  m_Colors:
  - {r: 1, g: 0.522, b: 0.106, a: 1}
  - {r: 1, g: 0.522, b: 0.106, a: 1}
  - {r: 1, g: 0.522, b: 0.106, a: 1}
  - {r: 1, g: 0.522, b: 0.106, a: 1}
  - {r: 1, g: 0.522, b: 0.106, a: 1}
  - {r: 1, g: 0.522, b: 0.106, a: 1}
  - {r: 1, g: 0.522, b: 0.106, a: 1}
  - {r: 1, g: 0.522, b: 0.106, a: 1}
  - {r: 1, g: 0.522, b: 0.106, a: 1}
  - {r: 1, g: 0.522, b: 0.106, a: 1}
  - {r: 1, g: 0.522, b: 0.106, a: 1}
  - {r: 1, g: 0.522, b: 0.106, a: 1}
  - {r: 1, g: 0.522, b: 0.106, a: 1}
  - {r: 1, g: 0.522, b: 0.106, a: 1}
  - {r: 1, g: 0.522, b: 0.106, a: 1}
  - {r: 1, g: 0.522, b: 0.106, a: 1}
  - {r: 1, g: 0.522, b: 0.106, a: 1}
  - {r: 1, g: 0.522, b: 0.106, a: 1}
  - {r: 1, g: 0.522, b: 0.106, a: 1}
  - {r: 1, g: 0.522, b: 0.106, a: 1}
  - {r: 1, g: 0.522, b: 0.106, a: 1}
  - {r: 1, g: 0.522, b: 0.106, a: 1}
  - {r: 1, g: 0.522, b: 0.106, a: 1}
  - {r: 1, g: 0.522, b: 0.106, a: 1}
  m_UnwrapParameters:
    m_HardAngle: 88
    m_PackMargin: 20
    m_AngleError: 8
    m_AreaError: 15
  m_PreserveMeshAssetOnDestroy: 0
  assetGuid: 
  m_IsSelectable: 1
  m_SelectedFaces: 
  m_SelectedEdges: []
  m_SelectedVertices: 
--- !u!54 &8676299378255734995
Rigidbody:
  m_ObjectHideFlags: 0
  m_CorrespondingSourceObject: {fileID: 0}
  m_PrefabInstance: {fileID: 0}
  m_PrefabAsset: {fileID: 0}
  m_GameObject: {fileID: 8676299378255734997}
  serializedVersion: 2
  m_Mass: 1
  m_Drag: 0
  m_AngularDrag: 0.05
  m_UseGravity: 1
  m_IsKinematic: 0
  m_Interpolate: 0
  m_Constraints: 0
  m_CollisionDetection: 0
--- !u!64 &8676299378255734998
MeshCollider:
  m_ObjectHideFlags: 0
  m_CorrespondingSourceObject: {fileID: 0}
  m_PrefabInstance: {fileID: 0}
  m_PrefabAsset: {fileID: 0}
  m_GameObject: {fileID: 8676299378255734997}
  m_Material: {fileID: 0}
  m_IsTrigger: 0
  m_Enabled: 1
  serializedVersion: 3
  m_Convex: 1
  m_CookingOptions: 14
  m_Mesh: {fileID: 0}
